{
    "MINIMAL_BLOCK_DELAY": "15",
    "DELAY_INCREMENT_PER_ROUND": "8",
    "BLOCKS_PER_CYCLE": "16,384",
    "BLOCKS_PER_STAKE_SNAPSHOT": "1024",
    "BAKING_REWARD_FIXED_PORTION": "5",
    "BAKING_REWARD_BONUS_PER_SLOT": "0.002143",
    "BAKING_REWARD_BONUS_TOTAL": "5",
    "MAX_TEZ_REWARD_PER_BLOCK": "20",
    "MAX_TEZ_REWARD_BAKER": "10",
    "MAX_TEZ_REWARD_ATTESTATION": "10",
    "ATTESTING_REWARD_PER_SLOT": "0.001428",
    "HARD_GAS_LIMIT_PER_BLOCK": "2,600,000",
    "HARD_GAS_LIMIT_PER_OPERATION": "1,040,000",
    "BLOCK_FINALITY": "2",
    "TIME_FINALITY": "30",

    "CURRENT_PROTOCOL": "nairobi",
    "CURRENT_PROTOCOL_TRIPLET": "017",
    "CURRENT_PROTOCOL_SHORT_HASH": "PtNairob",
    "PREVIOUS_PROTOCOL_SHORT_HASH": "PtMumbai",
    "CURRENT_TESTNET": "nairobinet",

    "CURRENT_OCTEZ_VERSION": "17.1",
    "CURRENT_OCTEZ_VERSION_MAJOR": "17"
}
